[gd_scene load_steps=7 format=2]

[ext_resource path="res://src/assets/ui/controls/transparentDark34.png" type="Texture" id=1]
[ext_resource path="res://src/assets/ui/controls/transparentDark35.png" type="Texture" id=2]
[ext_resource path="res://src/assets/ui/controls/transparentDark22.png" type="Texture" id=3]
[ext_resource path="res://src/assets/ui/controls/transparentDark23.png" type="Texture" id=4]
[ext_resource path="res://src/assets/ui/controls/transparentDark46.png" type="Texture" id=5]
[ext_resource path="res://src/scripts/Screen_Controls.gd" type="Script" id=6]

[node name="Screen_Controls" type="CanvasLayer"]
layer = 100
script = ExtResource( 6 )

[node name="btn_b" type="TouchScreenButton" parent="."]
position = Vector2( 712, 448 )
scale = Vector2( 1.5, 1.5 )
normal = ExtResource( 2 )
passby_press = true
action = "jump"
visibility_mode = 1

[node name="btn_a" type="TouchScreenButton" parent="."]
position = Vector2( 832, 384 )
scale = Vector2( 1.5, 1.5 )
normal = ExtResource( 1 )
action = "jump"
visibility_mode = 1

[node name="left" type="TouchScreenButton" parent="."]
position = Vector2( 72, 456 )
scale = Vector2( 1.5, 1.5 )
normal = ExtResource( 3 )
passby_press = true
action = "walk_left"
visibility_mode = 1

[node name="right" type="TouchScreenButton" parent="."]
position = Vector2( 192, 456 )
scale = Vector2( 1.5, 1.5 )
normal = ExtResource( 4 )
passby_press = true
action = "walk_right"
visibility_mode = 1

[node name="hide" type="TouchScreenButton" parent="."]
position = Vector2( 499.546, 2.997 )
scale = Vector2( 0.5, 0.5 )
normal = ExtResource( 5 )
visibility_mode = 1
[connection signal="released" from="hide" to="." method="hide_controls"]
