[gd_scene load_steps=3 format=2]

[ext_resource path="res://src/scripts/antigravity.gd" type="Script" id=1]

[sub_resource type="RectangleShape2D" id=1]
extents = Vector2( 10, 64 )

[node name="antigravity" type="Area2D"]
collision_layer = 0
collision_mask = 6
script = ExtResource( 1 )

[node name="CollisionShape2D" type="CollisionShape2D" parent="."]
shape = SubResource( 1 )
[connection signal="body_entered" from="." to="." method="toggle_gravity"]
[connection signal="body_exited" from="." to="." method="toggle_gravity"]
